6_7-Segment_HEX_Decoder/7447/quartus/simulation/qsim/seven_seg_decoder_7447.msim.vcd
$comment
	File created using the following command:
		vcd file seven_seg_decoder_7447.msim.vcd -direction
$end
$date
	Mon Aug 04 08:46:38 2025
$end
$version
	ModelSim Version 2020.1
$end
$timescale
	1ps
$end

$scope module seven_seg_decoder_7447_vlg_vec_tst $end
$var reg 1 ! A $end
$var reg 1 " B $end
$var reg 1 # C $end
$var reg 1 $ D $end
$var wire 1 % aa $end
$var wire 1 & bb $end
$var wire 1 ' cc $end
$var wire 1 ( dd $end
$var wire 1 ) ee $end
$var wire 1 * ff $end
$var wire 1 + gg $end

$scope module i1 $end
$var wire 1 , gnd $end
$var wire 1 - vcc $end
$var wire 1 . unknown $end
$var tri1 1 / devclrn $end
$var tri1 1 0 devpor $end
$var tri1 1 1 devoe $end
$var wire 1 2 ~QUARTUS_CREATED_GND~I_combout $end
$var wire 1 3 A~input_o $end
$var wire 1 4 D~input_o $end
$var wire 1 5 B~input_o $end
$var wire 1 6 C~input_o $end
$var wire 1 7 inst|81~combout $end
$var wire 1 8 inst|82~0_combout $end
$var wire 1 9 inst|83~combout $end
$var wire 1 : inst|84~0_combout $end
$var wire 1 ; inst|85~combout $end
$var wire 1 < inst|86~0_combout $end
$var wire 1 = inst|87~combout $end
$upscope $end
$upscope $end
$enddefinitions $end
#0
$dumpvars
0!
0"
0#
0$
0%
0&
0'
0(
0)
0*
1+
0,
1-
x.
1/
10
11
02
03
04
05
06
07
08
09
0:
0;
0<
1=
$end
#10000
1!
13
1<
1;
1:
17
1%
1(
1)
1*
#20000
1"
0!
15
03
0=
0;
0:
19
07
0%
1'
0(
0)
0+
#30000
1!
13
1;
09
0'
1)
#40000
1#
0"
0!
16
05
03
0<
1:
17
1%
1(
0*
#50000
1!
13
0:
18
07
0%
1&
0(
#60000
1"
0!
15
03
0;
17
1%
0)
#70000
1!
13
1=
1<
1;
1:
08
07
0%
0&
1(
1)
1*
1+
#80000
1$
0#
0"
0!
14
06
05
03
0=
0<
0;
0:
0(
0)
0*
0+
#90000
1!
13
1;
1:
1(
1)
#100000
1"
0!
15
03
1<
0;
0:
19
18
17
1%
1&
1'
0(
0)
1*
#110000
1!
13
1;
09
0'
1)
#120000
1#
0"
0!
16
05
03
0<
1:
19
08
0&
1'
1(
0*
#130000
1!
13
0:
18
07
0%
1&
0(
#140000
1"
0!
15
03
0;
17
1%
0)
#150000
1!
13
1=
1<
1;
1:
1(
1)
1*
1+
#160000
0$
0#
0"
0!
04
06
05
03
0<
0;
0:
09
08
07
0%
0&
0'
0(
0)
0*
#170000
1!
13
1<
1;
1:
17
1%
1(
1)
1*
#180000
1"
0!
15
03
0=
0;
0:
19
07
0%
1'
0(
0)
0+
#190000
1!
13
1;
09
0'
1)
#200000
1#
0"
0!
16
05
03
0<
1:
17
1%
1(
0*
#210000
1!
13
0:
18
07
0%
1&
0(
#220000
1"
0!
15
03
0;
17
1%
0)
#230000
1!
13
1=
1<
1;
1:
08
07
0%
0&
1(
1)
1*
1+
#240000
1$
0#
0"
0!
14
06
05
03
0=
0<
0;
0:
0(
0)
0*
0+
#250000
1!
13
1;
1:
1(
1)
#260000
1"
0!
15
03
1<
0;
0:
19
18
17
1%
1&
1'
0(
0)
1*
#270000
1!
13
1;
09
0'
1)
#280000
1#
0"
0!
16
05
03
0<
1:
19
08
0&
1'
1(
0*
#290000
1!
13
0:
18
07
0%
1&
0(
#300000
1"
0!
15
03
0;
17
1%
0)
#310000
1!
13
1=
1<
1;
1:
1(
1)
1*
1+
#320000
0$
0#
0"
0!
04
06
05
03
0<
0;
0:
09
08
07
0%
0&
0'
0(
0)
0*
#330000
1!
13
1<
1;
1:
17
1%
1(
1)
1*
#340000
1"
0!
15
03
0=
0;
0:
19
07
0%
1'
0(
0)
0+
#350000
1!
13
1;
09
0'
1)
#360000
1#
0"
0!
16
05
03
0<
1:
17
1%
1(
0*
#370000
1!
13
0:
18
07
0%
1&
0(
#380000
1"
0!
15
03
0;
17
1%
0)
#390000
1!
13
1=
1<
1;
1:
08
07
0%
0&
1(
1)
1*
1+
#400000
1$
0#
0"
0!
14
06
05
03
0=
0<
0;
0:
0(
0)
0*
0+
#410000
1!
13
1;
1:
1(
1)
#420000
1"
0!
15
03
1<
0;
0:
19
18
17
1%
1&
1'
0(
0)
1*
#430000
1!
13
1;
09
0'
1)
#440000
1#
0"
0!
16
05
03
0<
1:
19
08
0&
1'
1(
0*
#450000
1!
13
0:
18
07
0%
1&
0(
#460000
1"
0!
15
03
0;
17
1%
0)
#470000
1!
13
1=
1<
1;
1:
1(
1)
1*
1+
#480000
0$
0#
0"
0!
04
06
05
03
0<
0;
0:
09
08
07
0%
0&
0'
0(
0)
0*
#490000
1!
13
1<
1;
1:
17
1%
1(
1)
1*
#500000
1"
0!
15
03
0=
0;
0:
19
07
0%
1'
0(
0)
0+
#510000
1!
13
1;
09
0'
1)
#520000
1#
0"
0!
16
05
03
0<
1:
17
1%
1(
0*
#530000
1!
13
0:
18
07
0%
1&
0(
#540000
1"
0!
15
03
0;
17
1%
0)
#550000
1!
13
1=
1<
1;
1:
08
07
0%
0&
1(
1)
1*
1+
#560000
1$
0#
0"
0!
14
06
05
03
0=
0<
0;
0:
0(
0)
0*
0+
#570000
1!
13
1;
1:
1(
1)
#580000
1"
0!
15
03
1<
0;
0:
19
18
17
1%
1&
1'
0(
0)
1*
#590000
1!
13
1;
09
0'
1)
#600000
1#
0"
0!
16
05
03
0<
1:
19
08
0&
1'
1(
0*
#610000
1!
13
0:
18
07
0%
1&
0(
#620000
1"
0!
15
03
0;
17
1%
0)
#630000
1!
13
1=
1<
1;
1:
1(
1)
1*
1+
#640000
0$
0#
0"
0!
04
06
05
03
0<
0;
0:
09
08
07
0%
0&
0'
0(
0)
0*
#650000
1!
13
1<
1;
1:
17
1%
1(
1)
1*
#660000
1"
0!
15
03
0=
0;
0:
19
07
0%
1'
0(
0)
0+
#670000
1!
13
1;
09
0'
1)
#680000
1#
0"
0!
16
05
03
0<
1:
17
1%
1(
0*
#690000
1!
13
0:
18
07
0%
1&
0(
#700000
1"
0!
15
03
0;
17
1%
0)
#710000
1!
13
1=
1<
1;
1:
08
07
0%
0&
1(
1)
1*
1+
#720000
1$
0#
0"
0!
14
06
05
03
0=
0<
0;
0:
0(
0)
0*
0+
#730000
1!
13
1;
1:
1(
1)
#740000
1"
0!
15
03
1<
0;
0:
19
18
17
1%
1&
1'
0(
0)
1*
#750000
1!
13
1;
09
0'
1)
#760000
1#
0"
0!
16
05
03
0<
1:
19
08
0&
1'
1(
0*
#770000
1!
13
0:
18
07
0%
1&
0(
#780000
1"
0!
15
03
0;
17
1%
0)
#790000
1!
13
1=
1<
1;
1:
1(
1)
1*
1+
#800000
0$
0#
0"
0!
04
06
05
03
0<
0;
0:
09
08
07
0%
0&
0'
0(
0)
0*
#810000
1!
13
1<
1;
1:
17
1%
1(
1)
1*
#820000
1"
0!
15
03
0=
0;
0:
19
07
0%
1'
0(
0)
0+
#830000
1!
13
1;
09
0'
1)
#840000
1#
0"
0!
16
05
03
0<
1:
17
1%
1(
0*
#850000
1!
13
0:
18
07
0%
1&
0(
#860000
1"
0!
15
03
0;
17
1%
0)
#870000
1!
13
1=
1<
1;
1:
08
07
0%
0&
1(
1)
1*
1+
#880000
1$
0#
0"
0!
14
06
05
03
0=
0<
0;
0:
0(
0)
0*
0+
#890000
1!
13
1;
1:
1(
1)
#900000
1"
0!
15
03
1<
0;
0:
19
18
17
1%
1&
1'
0(
0)
1*
#910000
1!
13
1;
09
0'
1)
#920000
1#
0"
0!
16
05
03
0<
1:
19
08
0&
1'
1(
0*
#930000
1!
13
0:
18
07
0%
1&
0(
#940000
1"
0!
15
03
0;
17
1%
0)
#950000
1!
13
1=
1<
1;
1:
1(
1)
1*
1+
#960000
0$
0#
0"
0!
04
06
05
03
0<
0;
0:
09
08
07
0%
0&
0'
0(
0)
0*
#970000
1!
13
1<
1;
1:
17
1%
1(
1)
1*
#980000
1"
0!
15
03
0=
0;
0:
19
07
0%
1'
0(
0)
0+
#990000
1!
13
1;
09
0'
1)
