4_Four_Bit_D-Type_Register/quartus/simulation/qsim/register_4bit.msim.vcd
$comment
	File created using the following command:
		vcd file register_4bit.msim.vcd -direction
$end
$date
	Thu Jul 31 01:48:58 2025
$end
$version
	ModelSim Version 2020.1
$end
$timescale
	1ps
$end

$scope module register_4bit_vlg_vec_tst $end
$var reg 1 ! clk $end
$var reg 1 " clr $end
$var reg 1 # D0 $end
$var reg 1 $ D1 $end
$var reg 1 % D2 $end
$var reg 1 & D3 $end
$var reg 1 ' Data_Enable0 $end
$var reg 1 ( Data_Enable1 $end
$var reg 1 ) Out_Enable0 $end
$var reg 1 * Out_Enable1 $end
$var wire 1 + Q0 $end
$var wire 1 , Q1 $end
$var wire 1 - Q2 $end
$var wire 1 . Q3 $end

$scope module i1 $end
$var wire 1 / gnd $end
$var wire 1 0 vcc $end
$var wire 1 1 unknown $end
$var tri1 1 2 devclrn $end
$var tri1 1 3 devpor $end
$var tri1 1 4 devoe $end
$var wire 1 5 ~QUARTUS_CREATED_GND~I_combout $end
$var wire 1 6 clk~input_o $end
$var wire 1 7 clk~inputCLKENA0_outclk $end
$var wire 1 8 D0~input_o $end
$var wire 1 9 inst|9~feeder_combout $end
$var wire 1 : clr~input_o $end
$var wire 1 ; Data_Enable1~input_o $end
$var wire 1 < Data_Enable0~input_o $end
$var wire 1 = inst|25~combout $end
$var wire 1 > inst|9~q $end
$var wire 1 ? Out_Enable1~input_o $end
$var wire 1 @ Out_Enable0~input_o $end
$var wire 1 A inst|24~combout $end
$var wire 1 B D1~input_o $end
$var wire 1 C inst|8~feeder_combout $end
$var wire 1 D inst|8~q $end
$var wire 1 E D2~input_o $end
$var wire 1 F inst|7~q $end
$var wire 1 G D3~input_o $end
$var wire 1 H inst|6~q $end
$upscope $end
$upscope $end
$enddefinitions $end
#0
$dumpvars
0!
0"
0#
0$
0%
0&
0'
0(
0)
0*
0+
0,
0-
0.
0/
10
x1
12
13
14
05
06
07
08
09
0:
0;
0<
1=
0>
0?
0@
1A
0B
0C
0D
0E
0F
0G
0H
$end
#10000
1!
16
17
#20000
1#
0!
18
06
07
19
#30000
1!
16
17
1>
1+
#40000
1$
0#
0!
1B
08
06
07
09
1C
#50000
1!
16
17
1D
0>
0+
1,
#60000
1#
0!
18
06
07
19
#70000
1!
16
17
1>
1+
#80000
1%
0$
0#
0!
1E
0B
08
06
07
09
0C
#90000
1!
16
17
1F
0D
0>
0+
0,
1-
#100000
1#
0!
18
06
07
19
#110000
1!
16
17
1>
1+
#120000
1$
0#
0!
1B
08
06
07
09
1C
#130000
1!
16
17
1D
0>
0+
1,
#140000
1#
0!
18
06
07
19
#150000
1!
16
17
1>
1+
#160000
1&
0%
0$
0#
0!
1G
0E
0B
08
06
07
09
0C
#170000
1!
16
17
1H
0F
0D
0>
0+
0,
0-
1.
#180000
1#
0!
18
06
07
19
#190000
1!
16
17
1>
1+
#200000
1$
0#
0!
1B
08
06
07
09
1C
#210000
1!
16
17
1D
0>
0+
1,
#220000
1#
0!
18
06
07
19
#230000
1!
16
17
1>
1+
#240000
1%
0$
0#
0!
1E
0B
08
06
07
09
0C
#250000
1!
16
17
1F
0D
0>
0+
0,
1-
#260000
1#
0!
18
06
07
19
#270000
1!
16
17
1>
1+
#280000
1$
0#
0!
1B
08
06
07
09
1C
#290000
1!
16
17
1D
0>
0+
1,
#300000
1#
0!
18
06
07
19
#310000
1!
16
17
1>
1+
#320000
0&
0%
0$
0#
0!
0G
0E
0B
08
06
07
09
0C
#330000
1!
16
17
0H
0F
0D
0>
0+
0,
0-
0.
#340000
1#
0!
18
06
07
19
#350000
1!
16
17
1>
1+
#360000
1$
0#
0!
1B
08
06
07
09
1C
#370000
1!
16
17
1D
0>
0+
1,
#380000
1#
0!
18
06
07
19
#390000
1!
16
17
1>
1+
#400000
1%
0$
0#
0!
1E
0B
08
06
07
09
0C
#410000
1!
16
17
1F
0D
0>
0+
0,
1-
#420000
1#
0!
18
06
07
19
#430000
1!
16
17
1>
1+
#440000
1$
0#
0!
1B
08
06
07
09
1C
#450000
1!
16
17
1D
0>
0+
1,
#460000
1#
0!
18
06
07
19
#470000
1!
16
17
1>
1+
#480000
1&
0%
0$
0#
0!
1G
0E
0B
08
06
07
09
0C
#490000
1!
16
17
1H
0F
0D
0>
0+
0,
0-
1.
#500000
1#
0!
18
06
07
19
#510000
1!
16
17
1>
1+
#520000
1"
1$
0#
0!
1:
1B
08
06
07
09
1C
0>
0H
0.
0+
#530000
1!
16
17
#540000
1#
0!
18
06
07
19
#550000
1!
16
17
#560000
1%
0"
0$
0#
0!
1E
0:
0B
08
06
07
09
0C
#570000
1!
16
17
1H
1F
1-
1.
#580000
1#
0!
18
06
07
19
#590000
1!
16
17
1>
1+
#600000
1$
0#
0!
1B
08
06
07
09
1C
#610000
1)
1*
1!
1@
1?
16
17
0A
z+
z,
z-
z.
1D
0>
#620000
1#
0!
18
06
07
19
#630000
1!
16
17
1>
#640000
0&
0%
0$
0)
0*
0#
0!
0G
0E
0B
0@
0?
08
06
07
09
1A
0C
1+
1,
1-
1.
#650000
1!
16
17
0H
0F
0D
0>
0+
0,
0-
0.
#660000
1#
0!
18
06
07
19
#670000
1!
16
17
1>
1+
#680000
1$
0#
0!
1B
08
06
07
09
1C
#690000
1!
16
17
1D
0>
0+
1,
#700000
1#
0!
18
06
07
19
#710000
1!
16
17
1>
1+
#720000
1%
0$
0#
0!
1E
0B
08
06
07
09
0C
#730000
1!
16
17
1F
0D
0>
0+
0,
1-
#740000
1#
0!
18
06
07
19
#750000
1!
16
17
1>
1+
#760000
1$
0#
0!
1B
08
06
07
09
1C
#770000
1!
16
17
1D
0>
0+
1,
#780000
1#
0!
18
06
07
19
#790000
1!
16
17
1>
1+
#800000
1&
0%
0$
0#
0!
1G
0E
0B
08
06
07
09
0C
#810000
1!
16
17
1H
0F
0D
0>
0+
0,
0-
1.
#820000
1#
0!
18
06
07
19
#830000
1!
16
17
1>
1+
#840000
1$
0#
0!
1B
08
06
07
09
1C
#850000
1!
16
17
1D
0>
0+
1,
#860000
1#
0!
18
06
07
19
#870000
1!
16
17
1>
1+
#880000
1%
0$
0#
0!
1E
0B
08
06
07
09
0C
#890000
1!
16
17
1F
0D
0>
0+
0,
1-
#900000
1#
0!
18
06
07
19
#910000
1!
16
17
1>
1+
#920000
1$
0#
0!
1B
08
06
07
09
1C
#930000
1!
16
17
1D
0>
0+
1,
#940000
1#
0!
18
06
07
19
#950000
1!
16
17
1>
1+
#960000
0&
0%
0$
0#
0!
0G
0E
0B
08
06
07
09
0C
#970000
1!
16
17
0H
0F
0D
0>
0+
0,
0-
0.
#980000
1#
0!
18
06
07
19
#990000
1!
16
17
1>
1+
