3_Master_Slave_D_Flip_Flop/quartus/d_ff_nand/simulation/qsim/d_ff_nand.msim.vcd
$comment
	File created using the following command:
		vcd file d_ff_nand.msim.vcd -direction
$end
$date
	Thu Jul 31 01:01:16 2025
$end
$version
	ModelSim Version 2020.1
$end
$timescale
	1ps
$end

$scope module d_ff_nand_vlg_vec_tst $end
$var reg 1 ! clk $end
$var reg 1 " D $end
$var wire 1 # Q $end
$var wire 1 $ Q_NOT $end

$scope module i1 $end
$var wire 1 % gnd $end
$var wire 1 & vcc $end
$var wire 1 ' unknown $end
$var tri1 1 ( devclrn $end
$var tri1 1 ) devpor $end
$var tri1 1 * devoe $end
$var wire 1 + ~QUARTUS_CREATED_GND~I_combout $end
$var wire 1 , D~input_o $end
$var wire 1 - clk~input_o $end
$var wire 1 . inst|inst|inst|4~1_combout $end
$var wire 1 / inst2|inst|inst|4~1_combout $end
$var wire 1 0 inst2|inst|inst3|4~combout $end
$upscope $end
$upscope $end
$enddefinitions $end
#0
$dumpvars
0!
1"
1#
0$
0%
1&
x'
1(
1)
1*
0+
1,
0-
0.
0/
00
$end
#4215
0"
0,
1.
#10000
1!
1-
1/
10
1$
0#
#14615
1"
1,
#20000
0!
0"
0-
0,
#21775
1"
1,
0.
#23174
0"
0,
1.
#25108
1"
1,
0.
#26507
0"
0,
1.
#28441
1"
1,
0.
#29840
0"
0,
1.
#30000
1!
1-
#30739
1"
1,
#37139
0"
0,
#40000
0!
0-
#50000
1!
1-
#50292
1"
1,
#51925
0"
0,
#53625
1"
1,
#55258
0"
0,
#56958
1"
1,
#58591
0"
0,
#60000
0!
0-
#60666
1"
1,
0.
#62499
0"
0,
1.
#63999
1"
1,
0.
#65832
0"
0,
1.
#67332
1"
1,
0.
#69165
0"
0,
1.
#70000
1!
1"
1-
1,
#71162
0"
0,
#74212
1"
1,
#76162
0"
0,
#79212
1"
1,
#80000
0!
0-
0.
#81966
0"
0,
1.
#84166
1"
1,
0.
#86966
0"
0,
1.
#89166
1"
1,
0.
#90000
1!
0"
1-
0,
0/
1#
00
0$
#97549
1"
1,
#100000
0!
0-
#105549
0"
0,
1.
#110000
1!
1"
1-
1,
1/
10
1$
0#
#113415
0"
0,
#120000
0!
0-
#122815
1"
1,
0.
#130000
1!
0"
1-
0,
0/
1#
00
0$
#131646
1"
1,
#135246
0"
0,
#140000
0!
0-
1.
#141646
1"
1,
0.
#145246
0"
0,
1.
#150000
1!
1-
1/
10
1$
0#
#152658
1"
1,
#156057
0"
0,
#159324
1"
1,
#160000
0!
0-
0.
#162723
0"
0,
1.
#165990
1"
1,
0.
#169389
0"
0,
1.
#170000
1!
1-
#173542
1"
1,
#177242
0"
0,
#180000
0!
0-
#183542
1"
1,
0.
#187242
0"
0,
1.
#190000
1!
1-
#192952
1"
1,
#194552
0"
0,
#197952
1"
1,
#199552
0"
0,
#200000
0!
0-
#205496
1"
1,
0.
#209296
0"
0,
1.
#210000
1!
1-
#215496
1"
1,
#219296
0"
0,
#220000
0!
1"
0-
1,
0.
#222353
0"
0,
1.
#228253
1"
1,
0.
#230000
1!
0"
1-
0,
0/
1#
00
0$
#230149
1"
1,
#238949
0"
0,
#240000
0!
0-
1.
#250000
1!
1-
1/
10
1$
0#
#250669
1"
1,
#252302
0"
0,
#254002
1"
1,
#255635
0"
0,
#257335
1"
1,
#258968
0"
0,
#260000
0!
1"
0-
1,
0.
#260064
0"
0,
1.
#262664
1"
1,
0.
#265064
0"
0,
1.
#267664
1"
1,
0.
#270000
1!
1-
0/
1#
00
0$
#273241
0"
0,
#278141
1"
1,
#280000
0!
0-
#283241
0"
0,
1.
#288141
1"
1,
0.
#290000
1!
0"
1-
0,
#290495
1"
1,
#294495
0"
0,
#300000
0!
1"
0-
1,
#303745
0"
0,
1.
#309145
1"
1,
0.
#310000
1!
1-
#311281
0"
0,
#313931
1"
1,
#316281
0"
0,
#318931
1"
1,
#320000
0!
0"
0-
0,
1.
#322368
1"
1,
0.
#330000
1!
1-
#331368
0"
0,
#340000
0!
0-
1.
#343679
1"
1,
0.
#347579
0"
0,
1.
#350000
1!
1-
1/
10
1$
0#
#353679
1"
1,
#357579
0"
0,
#360000
0!
1"
0-
1,
0.
#360716
0"
0,
1.
#367216
1"
1,
0.
#370000
1!
0"
1-
0,
0/
1#
00
0$
#371979
1"
1,
#374979
0"
0,
#380000
0!
1"
0-
1,
#386447
0"
0,
1.
#390000
1!
1-
1/
10
1$
0#
#399247
1"
1,
#400000
0!
0"
0-
0,
#400267
1"
1,
0.
#404167
0"
0,
1.
#410000
1!
1-
#410267
1"
1,
#414167
0"
0,
#420000
0!
0-
#421026
1"
1,
0.
#424492
0"
0,
1.
#427692
1"
1,
0.
#430000
1!
1-
0/
1#
00
0$
#431158
0"
0,
#434358
1"
1,
#437824
0"
0,
#440000
0!
1"
0-
1,
#441127
0"
0,
1.
#448127
1"
1,
0.
#450000
1!
1-
#451127
0"
0,
#458127
1"
1,
#460000
0!
0-
#461613
0"
0,
1.
#467013
1"
1,
0.
#470000
1!
1-
#471613
0"
0,
#477013
1"
1,
#480000
0!
0-
#481629
0"
0,
1.
#485162
1"
1,
0.
#488295
0"
0,
1.
#490000
1!
1-
1/
10
1$
0#
#491828
1"
1,
#494961
0"
0,
#498494
1"
1,
#500000
0!
0"
0-
0,
#501295
1"
1,
0.
#503745
0"
0,
1.
#506295
1"
1,
0.
#508745
0"
0,
1.
#510000
1!
1"
1-
1,
#510089
0"
0,
#512323
1"
1,
#513422
0"
0,
#515656
1"
1,
#516755
0"
0,
#518989
1"
1,
#520000
0!
0-
0.
#521989
0"
0,
1.
#527489
1"
1,
0.
#530000
1!
1-
0/
1#
00
0$
#531989
0"
0,
#537489
1"
1,
#540000
0!
0-
#541690
0"
0,
1.
#547290
1"
1,
0.
#550000
1!
1-
#551690
0"
0,
#557290
1"
1,
#560000
0!
0-
#560337
0"
0,
1.
#561804
1"
1,
0.
#563670
0"
0,
1.
#565137
1"
1,
0.
#567003
0"
0,
1.
#568470
1"
1,
0.
#570000
1!
1-
#571689
0"
0,
#576689
1"
1,
#580000
0!
0"
0-
0,
1.
#581915
1"
1,
0.
#583181
0"
0,
1.
#585248
1"
1,
0.
#586514
0"
0,
1.
#588581
1"
1,
0.
#589847
0"
0,
1.
#590000
1!
1-
1/
10
1$
0#
#590801
1"
1,
#596801
0"
0,
#600000
0!
0-
#601994
1"
1,
0.
#607294
0"
0,
1.
#610000
1!
1"
1-
1,
#612138
0"
0,
#619138
1"
1,
#620000
0!
0-
0.
#622138
0"
0,
1.
#629138
1"
1,
0.
#630000
1!
0"
1-
0,
0/
1#
00
0$
#631659
1"
1,
#633709
0"
0,
#636659
1"
1,
#638709
0"
0,
#640000
0!
0-
1.
#640169
1"
1,
0.
#641402
0"
0,
1.
#643502
1"
1,
0.
#644735
0"
0,
1.
#646835
1"
1,
0.
#648068
0"
0,
1.
#650000
1!
1-
1/
10
1$
0#
#650909
1"
1,
#653442
0"
0,
#657575
1"
1,
#660000
0!
0-
0.
#660108
0"
0,
1.
#664241
1"
1,
0.
#666774
0"
0,
1.
#670000
1!
1-
#672697
1"
1,
#675296
0"
0,
#679363
1"
1,
#680000
0!
0-
0.
#681962
0"
0,
1.
#686029
1"
1,
0.
#688628
0"
0,
1.
#690000
1!
1"
1-
1,
#690831
0"
0,
#700000
0!
0-
#703231
1"
1,
0.
#710000
1!
1-
0/
1#
00
0$
#711042
0"
0,
#714042
1"
1,
#716042
0"
0,
#719042
1"
1,
#720000
0!
0-
#720298
0"
0,
1.
#726798
1"
1,
0.
#730000
1!
1-
#730109
0"
0,
#734309
1"
1,
#740000
0!
0-
#740678
0"
0,
1.
#742678
1"
1,
0.
#745678
0"
0,
1.
#747678
1"
1,
0.
#750000
1!
0"
1-
0,
#750789
1"
1,
#752589
0"
0,
#755789
1"
1,
#757589
0"
0,
#760000
0!
0-
1.
#760017
1"
1,
0.
#763417
0"
0,
1.
#770000
1!
1"
1-
1,
1/
10
1$
0#
#771429
0"
0,
#774296
1"
1,
#778095
0"
0,
#780000
0!
0-
#780962
1"
1,
0.
#784761
0"
0,
1.
#787628
1"
1,
0.
#790000
1!
1-
0/
1#
00
0$
#795180
0"
0,
#800000
0!
0-
1.
#807180
1"
1,
0.
#810000
1!
1-
#813345
0"
0,
#820000
0!
0-
1.
#823945
1"
1,
0.
#830000
1!
0"
1-
0,
#830919
1"
1,
#833652
0"
0,
#837585
1"
1,
#840000
0!
0-
#840318
0"
0,
1.
#844251
1"
1,
0.
#846984
0"
0,
1.
#850000
1!
1"
1-
1,
1/
10
1$
0#
#850705
0"
0,
#856505
1"
1,
#860000
0!
0"
0-
0,
#860267
1"
1,
0.
#862233
0"
0,
1.
#863600
1"
1,
0.
#865566
0"
0,
1.
#866933
1"
1,
0.
#868899
0"
0,
1.
#870000
1!
1"
1-
1,
#872319
0"
0,
#874769
1"
1,
#877319
0"
0,
#879769
1"
1,
#880000
0!
0"
0-
0,
#880818
1"
1,
0.
#882951
0"
0,
1.
#887484
1"
1,
0.
#889617
0"
0,
1.
#890000
1!
1-
#894150
1"
1,
#896283
0"
0,
#900000
0!
0-
#908834
1"
1,
0.
#910000
1!
1-
0/
1#
00
0$
#919034
0"
0,
#920000
0!
1"
0-
1,
#921510
0"
0,
1.
#925810
1"
1,
0.
#930000
1!
1-
#931047
0"
0,
#935947
1"
1,
#940000
0!
0-
#942913
0"
0,
1.
#948613
1"
1,
0.
#950000
1!
1-
#952913
0"
0,
#958613
1"
1,
#960000
0!
0"
0-
0,
1.
#962933
1"
1,
0.
#964533
0"
0,
1.
#967933
1"
1,
0.
#969533
0"
0,
1.
#970000
1!
1"
1-
1,
1/
10
1$
0#
#970757
0"
0,
#974157
1"
1,
#975757
0"
0,
#979157
1"
1,
#980000
0!
0-
0.
#981530
0"
0,
1.
#984680
1"
1,
0.
#986530
0"
0,
1.
#989680
1"
1,
0.
#990000
1!
0"
1-
0,
0/
1#
00
0$
#990296
1"
1,
#993296
0"
0,
