3_Master_Slave_D_Flip_Flop/quartus/d_ff_nand/simulation/qsim/d_ff_nand.msim.vcd
$comment
	File created using the following command:
		vcd file d_ff_nand.msim.vcd -direction
$end
$date
	Thu Jul 31 01:33:08 2025
$end
$version
	ModelSim Version 2020.1
$end
$timescale
	1ps
$end

$scope module d_ff_nand_vlg_vec_tst $end
$var reg 1 ! clk $end
$var reg 1 " D $end
$var wire 1 # Q $end

$scope module i1 $end
$var wire 1 $ gnd $end
$var wire 1 % vcc $end
$var wire 1 & unknown $end
$var tri1 1 ' devclrn $end
$var tri1 1 ( devpor $end
$var tri1 1 ) devoe $end
$var wire 1 * ~QUARTUS_CREATED_GND~I_combout $end
$var wire 1 + D~input_o $end
$var wire 1 , clk~input_o $end
$var wire 1 - inst|inst|inst|4~1_combout $end
$var wire 1 . inst2|inst|inst|4~1_combout $end
$upscope $end
$upscope $end
$enddefinitions $end
#0
$dumpvars
0!
1"
1#
0$
1%
x&
1'
1(
1)
0*
1+
0,
0-
0.
$end
#10000
1!
1,
#18000
0"
0+
#20000
0!
0,
1-
#30000
1!
1,
1.
0#
#40000
0!
0,
#45000
1"
1+
0-
#50000
1!
1,
0.
1#
#60000
0!
0,
#63000
0"
0+
1-
#70000
1!
1,
1.
0#
#80000
0!
0,
#81000
1"
1+
0-
#90000
1!
1,
0.
1#
#99000
0"
0+
#100000
0!
0,
1-
#110000
1!
1,
1.
0#
#117000
1"
1+
#120000
0!
0,
0-
#130000
1!
1,
0.
1#
#135000
0"
0+
#140000
0!
0,
1-
#144000
1"
1+
0-
#150000
1!
1,
#153000
0"
0+
#160000
0!
0,
1-
#162000
1"
1+
0-
#170000
1!
1,
#180000
0"
0!
0+
0,
1-
#190000
1!
1,
1.
0#
#198000
1"
1+
#200000
0!
0,
0-
#207000
0"
0+
1-
#210000
1!
1,
#216000
1"
1+
#220000
0!
0,
0-
#230000
1!
1,
0.
1#
#240000
0!
0,
#243000
0"
0+
1-
#250000
1!
1,
1.
0#
#260000
0!
0,
#270000
1"
1!
1+
1,
#279000
0"
0+
#280000
0!
0,
#288000
1"
1+
0-
#290000
1!
1,
0.
1#
#300000
0!
0,
#310000
1!
1,
#320000
0!
0,
#324000
0"
0+
1-
#330000
1!
1,
1.
0#
#340000
0!
0,
#350000
1!
1,
#351000
1"
1+
#360000
0!
0,
0-
#369000
0"
0+
1-
#370000
1!
1,
#380000
0!
0,
#387000
1"
1+
0-
#390000
1!
1,
0.
1#
#396000
0"
0+
#400000
0!
0,
1-
#405000
1"
1+
0-
#410000
1!
1,
#414000
0"
0+
#420000
0!
0,
1-
#423000
1"
1+
0-
#430000
1!
1,
#440000
0!
0,
#441000
0"
0+
1-
#450000
1!
1,
1.
0#
#460000
0!
0,
#470000
1!
1,
#477000
1"
1+
#480000
0!
0,
0-
#490000
1!
1,
0.
1#
#495000
0"
0+
#500000
0!
0,
1-
#510000
1!
1,
1.
0#
#520000
0!
0,
#530000
1!
1,
#531000
1"
1+
#540000
0!
0"
0,
0+
#549000
1"
1+
0-
#550000
1!
1,
0.
1#
#560000
0!
0,
#567000
0"
0+
1-
#570000
1!
1,
1.
0#
#576000
1"
1+
#580000
0!
0,
0-
#585000
0"
0+
1-
#590000
1!
1,
#594000
1"
1+
#600000
0!
0,
0-
#603000
0"
0+
1-
#610000
1!
1,
#612000
1"
1+
#620000
0!
0,
0-
#621000
0"
0+
1-
#630000
1!
1"
1,
1+
#640000
0!
0,
0-
#648000
0"
0+
1-
#650000
1!
1,
#657000
1"
1+
#660000
0!
0,
0-
#670000
1!
1,
0.
1#
#680000
0!
0,
#684000
0"
0+
1-
#690000
1!
1,
1.
0#
#693000
1"
1+
#700000
0!
0,
0-
#710000
1!
1,
0.
1#
#720000
0"
0!
0+
0,
1-
#730000
1!
1,
1.
0#
#738000
1"
1+
#740000
0!
0,
0-
#747000
0"
0+
1-
#750000
1!
1,
#760000
0!
0,
#770000
1!
1,
#774000
1"
1+
#780000
0!
0,
0-
#790000
1!
1,
0.
1#
#800000
0!
0,
#801000
0"
0+
1-
#810000
1!
1"
1,
1+
1.
0#
#819000
0"
0+
#820000
0!
0,
#828000
1"
1+
0-
#830000
1!
1,
0.
1#
#840000
0!
0,
#846000
0"
0+
1-
#850000
1!
1,
1.
0#
#860000
0!
0,
#870000
1!
1,
#880000
0!
0,
#890000
1!
1,
#891000
1"
1+
#900000
0!
0"
0,
0+
#909000
1"
1+
0-
#910000
1!
1,
0.
1#
#920000
0!
0,
#927000
0"
0+
1-
#930000
1!
1,
1.
0#
#936000
1"
1+
#940000
0!
0,
0-
#950000
1!
1,
0.
1#
#960000
0!
0,
#970000
1!
1,
#980000
0!
0,
#981000
0"
0+
1-
#990000
1!
1"
1,
1+
1.
0#
#999000
0"
0+
