3_Master_Slave_D_Flip_Flop/quartus/simulation/qsim/d_ff.msim.vcd
$comment
	File created using the following command:
		vcd file d_ff.msim.vcd -direction
$end
$date
	Tue Jul 29 02:37:52 2025
$end
$version
	ModelSim Version 2020.1
$end
$timescale
	1ps
$end

$scope module d_ff_vlg_vec_tst $end
$var reg 1 ! clk $end
$var reg 1 " D $end
$var wire 1 # Q $end

$scope module i1 $end
$var wire 1 $ gnd $end
$var wire 1 % vcc $end
$var wire 1 & unknown $end
$var tri1 1 ' devclrn $end
$var tri1 1 ( devpor $end
$var tri1 1 ) devoe $end
$var wire 1 * ~QUARTUS_CREATED_GND~I_combout $end
$var wire 1 + D~input_o $end
$var wire 1 , clk~input_o $end
$var wire 1 - master|inst1|NOR0|4~1_combout $end
$var wire 1 . slave|inst1|NOR0|4~1_combout $end
$upscope $end
$upscope $end
$enddefinitions $end
#0
$dumpvars
0!
1"
1#
0$
1%
x&
1'
1(
1)
0*
1+
0,
0-
0.
$end
#10000
1!
1,
#14000
0"
0+
#20000
0!
0,
1-
#28000
1"
1+
0-
#30000
1!
1,
#35000
0"
0+
#40000
0!
0,
1-
#50000
1!
1,
1.
0#
#60000
0!
0,
#63000
1"
1+
0-
#70000
1!
0"
1,
0+
0.
1#
#77000
1"
1+
#80000
0!
0,
#84000
0"
0+
1-
#90000
1!
1,
1.
0#
#98000
1"
1+
#100000
0!
0,
0-
#110000
1!
1,
0.
1#
#112000
0"
0+
#120000
0!
0,
1-
#130000
1!
1,
1.
0#
#133000
1"
1+
#140000
0!
0"
0,
0+
#150000
1!
1,
#160000
0!
0,
#161000
1"
1+
0-
#168000
0"
0+
1-
#170000
1!
1,
#180000
0!
0,
#189000
1"
1+
0-
#190000
1!
1,
0.
1#
#196000
0"
0+
#200000
0!
0,
1-
#210000
1"
1!
1+
1,
1.
0#
#217000
0"
0+
#220000
0!
0,
#230000
1!
1,
#240000
0!
0,
#245000
1"
1+
0-
#250000
1!
1,
0.
1#
#252000
0"
0+
#259000
1"
1+
#260000
0!
0,
#270000
1!
1,
#273000
0"
0+
#280000
0!
1"
0,
1+
#290000
1!
1,
#294000
0"
0+
#300000
0!
0,
1-
#310000
1!
1,
1.
0#
#320000
0!
0,
#330000
1!
1,
#340000
0!
0,
#343000
1"
1+
0-
#350000
1!
1,
0.
1#
#360000
0!
0,
#364000
0"
0+
1-
#370000
1!
1,
1.
0#
#371000
1"
1+
#378000
0"
0+
#380000
0!
0,
#385000
1"
1+
0-
#390000
1!
1,
0.
1#
#400000
0!
0,
#406000
0"
0+
1-
#410000
1!
1,
1.
0#
#413000
1"
1+
#420000
0!
0,
0-
#430000
1!
1,
0.
1#
#440000
0!
0,
#448000
0"
0+
1-
#450000
1!
1,
1.
0#
#455000
1"
1+
#460000
0!
0,
0-
#470000
1!
1,
0.
1#
#480000
0!
0,
#490000
0"
1!
0+
1,
#497000
1"
1+
#500000
0!
0,
#504000
0"
0+
1-
#510000
1!
1,
1.
0#
#518000
1"
1+
#520000
0!
0,
0-
#530000
1!
1,
0.
1#
#532000
0"
0+
#539000
1"
1+
#540000
0!
0,
#550000
1!
1,
#553000
0"
0+
#560000
0!
1"
0,
1+
#567000
0"
0+
1-
#570000
1!
1,
1.
0#
#574000
1"
1+
#580000
0!
0,
0-
#590000
1!
1,
0.
1#
#595000
0"
0+
#600000
0!
0,
1-
#602000
1"
1+
0-
#609000
0"
0+
1-
#610000
1!
1,
1.
0#
#616000
1"
1+
#620000
0!
0,
0-
#630000
1!
1,
0.
1#
#637000
0"
0+
#640000
0!
0,
1-
#644000
1"
1+
0-
#650000
1!
1,
#651000
0"
0+
#660000
0!
0,
1-
#665000
1"
1+
0-
#670000
1!
1,
#672000
0"
0+
#680000
0!
0,
1-
#686000
1"
1+
0-
#690000
1!
1,
#700000
0!
0,
#707000
0"
0+
1-
#710000
1!
1,
1.
0#
#714000
1"
1+
#720000
0!
0,
0-
#721000
0"
0+
1-
#728000
1"
1+
0-
#730000
1!
1,
0.
1#
#740000
0!
0,
#750000
1!
1,
#756000
0"
0+
#760000
0!
0,
1-
#763000
1"
1+
0-
#770000
1!
1,
#777000
0"
0+
#780000
0!
0,
1-
#790000
1!
1,
1.
0#
#791000
1"
1+
#798000
0"
0+
#800000
0!
0,
#805000
1"
1+
0-
#810000
1!
1,
0.
1#
#812000
0"
0+
#819000
1"
1+
#820000
0!
0,
#830000
1!
1,
#840000
0!
0,
#850000
1!
1,
#854000
0"
0+
#860000
0!
0,
1-
#861000
1"
1+
0-
#868000
0"
0+
1-
#870000
1!
1,
1.
0#
#875000
1"
1+
#880000
0!
0,
0-
#890000
1!
1,
0.
1#
#900000
0!
0,
#910000
0"
1!
0+
1,
#920000
0!
0,
1-
#924000
1"
1+
0-
#930000
1!
1,
#931000
0"
0+
#938000
1"
1+
#940000
0!
0,
#945000
0"
0+
1-
#950000
1!
1,
1.
0#
#952000
1"
1+
#959000
0"
0+
#960000
0!
0,
#966000
1"
1+
0-
#970000
1!
1,
0.
1#
#973000
0"
0+
#980000
0!
0,
1-
#990000
1!
1,
1.
0#
