5_Binary_Adder_Module/quartus/simulation/qsim/binary_counter_adder_4bit.msim.vcd
$comment
	File created using the following command:
		vcd file binary_counter_adder_4bit.msim.vcd -direction
$end
$date
	Thu Jul 31 02:29:22 2025
$end
$version
	ModelSim Version 2020.1
$end
$timescale
	1ps
$end

$scope module binary_counter_adder_4bit_vlg_vec_tst $end
$var reg 1 ! clr0_NOT $end
$var reg 1 " clr1_NOT $end
$var reg 1 # count_0 $end
$var reg 1 $ count_1 $end
$var wire 1 % cout $end
$var wire 1 & s0 $end
$var wire 1 ' s1 $end
$var wire 1 ( s2 $end
$var wire 1 ) s3 $end

$scope module i1 $end
$var wire 1 * gnd $end
$var wire 1 + vcc $end
$var wire 1 , unknown $end
$var tri1 1 - devclrn $end
$var tri1 1 . devpor $end
$var tri1 1 / devoe $end
$var wire 1 0 ~QUARTUS_CREATED_GND~I_combout $end
$var wire 1 1 count_1~input_o $end
$var wire 1 2 count_1~inputCLKENA0_outclk $end
$var wire 1 3 inst1|sub|9~0_combout $end
$var wire 1 4 clr1_NOT~input_o $end
$var wire 1 5 inst1|sub|9~q $end
$var wire 1 6 count_0~input_o $end
$var wire 1 7 count_0~inputCLKENA0_outclk $end
$var wire 1 8 inst|sub|9~0_combout $end
$var wire 1 9 clr0_NOT~input_o $end
$var wire 1 : inst|sub|9~q $end
$var wire 1 ; inst2|sub|76~combout $end
$var wire 1 < inst|sub|9~DUPLICATE_q $end
$var wire 1 = inst|sub|87~q $end
$var wire 1 > inst|sub|87~0_combout $end
$var wire 1 ? inst|sub|87~DUPLICATE_q $end
$var wire 1 @ inst1|sub|87~q $end
$var wire 1 A inst1|sub|9~DUPLICATE_q $end
$var wire 1 B inst1|sub|87~0_combout $end
$var wire 1 C inst1|sub|87~DUPLICATE_q $end
$var wire 1 D inst2|sub|78~combout $end
$var wire 1 E inst|sub|99~0_combout $end
$var wire 1 F inst|sub|99~q $end
$var wire 1 G inst1|sub|99~0_combout $end
$var wire 1 H inst1|sub|99~q $end
$var wire 1 I inst2|sub|80~combout $end
$var wire 1 J inst1|sub|110~0_combout $end
$var wire 1 K inst1|sub|110~q $end
$var wire 1 L inst|sub|99~DUPLICATE_q $end
$var wire 1 M inst|sub|110~0_combout $end
$var wire 1 N inst|sub|110~q $end
$var wire 1 O inst2|sub|105~0_combout $end
$var wire 1 P inst2|sub|82~combout $end
$var wire 1 Q inst2|sub|107~0_combout $end
$upscope $end
$upscope $end
$enddefinitions $end
#0
$dumpvars
1!
1"
0#
0$
0%
0&
0'
0(
0)
0*
1+
x,
1-
1.
1/
00
01
02
13
14
05
06
07
18
19
0:
0;
0<
0=
0>
0?
0@
0A
0B
0C
0D
0E
0F
0G
0H
0I
0J
0K
0L
0M
0N
0O
0P
0Q
$end
#10000
1#
16
17
1<
1:
1;
08
1>
1&
#20000
0#
06
07
#30000
1#
16
17
1?
1=
0<
0:
0;
18
1D
1'
0&
#40000
0#
06
07
#50000
1#
16
17
1<
1:
1;
08
1E
0>
1&
#60000
0#
06
07
#80000
1$
11
12
1A
15
1O
0D
0;
03
1I
1B
1(
0&
0'
#90000
0$
01
02
#100000
1$
11
12
1C
0A
1@
05
1;
13
1&
#110000
0$
01
02
#120000
1$
11
12
1A
15
1G
1D
0;
03
0B
0&
1'
#130000
0!
0$
09
01
02
0:
0<
0=
0?
0O
0I
0E
1;
18
1&
0(
#140000
1$
11
12
1H
0C
0A
0@
05
0D
0;
13
1I
1(
0&
0'
#150000
1!
0$
19
01
02
#160000
1$
11
12
1A
15
1;
03
1B
1&
#170000
0$
01
02
