1_SR_Latch/quartus/sr_latch_nand/simulation/qsim/sr_latch_nand.msim.vcd
$comment
	File created using the following command:
		vcd file sr_latch_nand.msim.vcd -direction
$end
$date
	Wed Jul 30 23:09:06 2025
$end
$version
	ModelSim Version 2020.1
$end
$timescale
	1ps
$end

$scope module sr_latch_nand_vlg_vec_tst $end
$var reg 1 ! R_not $end
$var reg 1 " S_not $end
$var wire 1 # Q $end
$var wire 1 $ Q_not $end

$scope module i1 $end
$var wire 1 % gnd $end
$var wire 1 & vcc $end
$var wire 1 ' unknown $end
$var tri1 1 ( devclrn $end
$var tri1 1 ) devpor $end
$var tri1 1 * devoe $end
$var wire 1 + ~QUARTUS_CREATED_GND~I_combout $end
$var wire 1 , R_not~input_o $end
$var wire 1 - S_not~input_o $end
$var wire 1 . inst|4~combout $end
$var wire 1 / inst3|4~combout $end
$upscope $end
$upscope $end
$enddefinitions $end
#0
$dumpvars
0!
1"
0#
1$
0%
1&
x'
1(
1)
1*
0+
0,
1-
1.
0/
$end
#10000
1!
1,
#20000
0"
0-
0.
1#
1/
0$
#40000
0!
1"
0,
1-
1.
0/
1$
0#
#60000
0"
0-
0.
1#
#80000
1!
1"
1,
1-
1/
0$
#100000
0"
0-
#120000
0!
1"
0,
1-
1.
0/
1$
0#
#140000
0"
0-
0.
1#
#160000
1!
1"
1,
1-
1/
0$
#180000
0"
0-
#200000
0!
1"
0,
1-
1.
0/
1$
0#
#220000
0"
0-
0.
1#
#240000
1!
1"
1,
1-
1/
0$
#260000
0"
0-
#280000
0!
1"
0,
1-
1.
0/
1$
0#
#300000
0"
0-
0.
1#
#320000
1!
1"
1,
1-
1/
0$
#340000
0"
0-
#360000
0!
1"
0,
1-
1.
0/
1$
0#
#380000
0"
0-
0.
1#
#400000
1!
1"
1,
1-
1/
0$
#420000
0"
0-
#440000
0!
1"
0,
1-
1.
0/
1$
0#
#460000
0"
0-
0.
1#
#480000
1!
1"
1,
1-
1/
0$
#500000
0"
0-
#520000
0!
1"
0,
1-
1.
0/
1$
0#
#540000
0"
0-
0.
1#
#560000
1!
1"
1,
1-
1/
0$
#580000
0"
0-
#600000
0!
1"
0,
1-
1.
0/
1$
0#
#620000
0"
0-
0.
1#
#640000
1!
1"
1,
1-
1/
0$
#660000
0"
0-
#680000
0!
1"
0,
1-
1.
0/
1$
0#
#700000
0"
0-
0.
1#
#720000
1!
1"
1,
1-
1/
0$
#740000
0"
0-
#760000
0!
1"
0,
1-
1.
0/
1$
0#
#780000
0"
0-
0.
1#
#800000
1!
1"
1,
1-
1/
0$
#820000
0"
0-
#840000
0!
1"
0,
1-
1.
0/
1$
0#
#860000
0"
0-
0.
1#
#880000
1!
1"
1,
1-
1/
0$
#900000
0"
0-
#920000
0!
1"
0,
1-
1.
0/
1$
0#
#940000
0"
0-
0.
1#
#960000
1!
1"
1,
1-
1/
0$
#980000
0"
0-
