3_Master_Slave_D_Flip_Flop/quartus/d_ff/simulation/qsim/d_ff.msim.vcd
$comment
	File created using the following command:
		vcd file d_ff.msim.vcd -direction
$end
$date
	Thu Jul 31 01:14:36 2025
$end
$version
	ModelSim Version 2020.1
$end
$timescale
	1ps
$end

$scope module d_ff_vlg_vec_tst $end
$var reg 1 ! clk $end
$var reg 1 " D $end
$var wire 1 # Q $end

$scope module i1 $end
$var wire 1 $ gnd $end
$var wire 1 % vcc $end
$var wire 1 & unknown $end
$var tri1 1 ' devclrn $end
$var tri1 1 ( devpor $end
$var tri1 1 ) devoe $end
$var wire 1 * ~QUARTUS_CREATED_GND~I_combout $end
$var wire 1 + D~input_o $end
$var wire 1 , clk~input_o $end
$var wire 1 - master|inst1|NOR0|4~1_combout $end
$var wire 1 . slave|inst1|NOR0|4~1_combout $end
$upscope $end
$upscope $end
$enddefinitions $end
#0
$dumpvars
0!
0"
1#
0$
1%
x&
1'
1(
1)
0*
0+
0,
1-
0.
$end
#7000
1"
1+
0-
#10000
1!
1,
#14000
0"
0+
#20000
0!
0,
1-
#21000
1"
1+
0-
#28000
0"
0+
1-
#30000
1!
1,
1.
0#
#40000
0!
0,
#42000
1"
1+
0-
#50000
1!
1,
0.
1#
#56000
0"
0+
#60000
0!
0,
1-
#70000
1!
1,
1.
0#
#77000
1"
1+
#80000
0!
0,
0-
#90000
1!
1,
0.
1#
#91000
0"
0+
#100000
0!
0,
1-
#110000
1!
1,
1.
0#
#119000
1"
1+
#120000
0!
0,
0-
#126000
0"
0+
1-
#130000
1!
1,
#133000
1"
1+
#140000
0!
0"
0,
0+
#150000
1!
1,
#160000
0!
0,
#168000
1"
1+
0-
#170000
1!
1,
0.
1#
#180000
0!
0,
#190000
1!
1,
#196000
0"
0+
#200000
0!
0,
1-
#210000
1"
1!
1+
1,
1.
0#
#217000
0"
0+
#220000
0!
0,
#230000
1!
1,
#231000
1"
1+
#240000
0!
0,
0-
#250000
1!
1,
0.
1#
#260000
0!
0,
#266000
0"
0+
1-
#270000
1!
1,
1.
0#
#280000
1"
0!
1+
0,
0-
#287000
0"
0+
1-
#290000
1!
1,
#294000
1"
1+
#300000
0!
0,
0-
#310000
1!
1,
0.
1#
#315000
0"
0+
#320000
0!
0,
1-
#330000
1!
1,
1.
0#
#336000
1"
1+
#340000
0!
0,
0-
#350000
0"
1!
0+
1,
0.
1#
#357000
1"
1+
#360000
0!
0,
#364000
0"
0+
1-
#370000
1!
1,
1.
0#
#378000
1"
1+
#380000
0!
0,
0-
#385000
0"
0+
1-
#390000
1!
1,
#400000
0!
0,
#410000
1!
1,
#420000
0!
0,
#427000
1"
1+
0-
#430000
1!
1,
0.
1#
#440000
0!
0,
#450000
1!
1,
#455000
0"
0+
#460000
0!
0,
1-
#470000
1!
1,
1.
0#
#480000
0!
0,
#490000
1!
1,
#497000
1"
1+
#500000
0!
0,
0-
#504000
0"
0+
1-
#510000
1!
1,
#520000
0!
0,
#530000
1!
1,
#532000
1"
1+
#539000
0"
0+
#540000
0!
0,
#550000
1!
1,
#560000
0!
0,
#570000
1!
1,
#580000
0!
0,
#588000
1"
1+
0-
#590000
1!
1,
0.
1#
#600000
0!
0,
#609000
0"
0+
1-
#610000
1!
1,
1.
0#
#620000
0!
0,
#623000
1"
1+
0-
#630000
1!
1,
0.
1#
#640000
0!
0,
#650000
1!
1,
#651000
0"
0+
#658000
1"
1+
#660000
0!
0,
#670000
1!
1,
#680000
0!
0,
#686000
0"
0+
1-
#690000
1!
1,
1.
0#
#700000
1"
0!
1+
0,
0-
#710000
1!
1,
0.
1#
#720000
0!
0,
#721000
0"
0+
1-
#728000
1"
1+
0-
#730000
1!
1,
#740000
0!
0,
#742000
0"
0+
1-
#750000
1!
1,
1.
0#
#760000
0!
0,
#763000
1"
1+
0-
#770000
1!
0"
1,
0+
0.
1#
#780000
0!
0,
1-
#784000
1"
1+
0-
#790000
1!
1,
#798000
0"
0+
#800000
0!
0,
1-
#805000
1"
1+
0-
#810000
1!
1,
#819000
0"
0+
#820000
0!
0,
1-
#826000
1"
1+
0-
#830000
1!
1,
#840000
0!
0,
#850000
1!
1,
#860000
0!
0,
#870000
1!
1,
#875000
0"
0+
#880000
0!
0,
1-
#890000
1!
1,
1.
0#
#900000
0!
0,
#903000
1"
1+
0-
#910000
1!
1,
0.
1#
#920000
0!
0,
#930000
1!
1,
#931000
0"
0+
#940000
0!
0,
1-
#950000
1!
1,
1.
0#
#960000
0!
0,
#966000
1"
1+
0-
#970000
1!
1,
0.
1#
#980000
0!
0,
#987000
0"
0+
1-
#990000
1!
1,
1.
0#
